[
  {
    "id": "123",
    "name": "Banana Pancakes",
    "price": 1410,
    "description": "Best pancakes ever",
    "promotion": false,
    "discount": 0.1,
    "image": "https://via.placeholder.com/80",
    "date_added": "2021-09-07T12:54:58.495Z",
    "category": [
      "pancakes"
    ]
  },
  {
    "id": "234",
    "name": "Strawbery Pancakes",
    "price": 2344,
    "description": "Ineresting pancakes",
    "promotion": true,
    "image": "https://via.placeholder.com/80",
    "date_added": "2021-09-07T12:54:58.495Z",
    "category": [
      "pancakes"
    ],
    "rating": {
      "votes": 123,
      "rate": 4.5
    }
  },
  {
    "id": "345",
    "name": "Banana cookies",
    "price": 1243,
    "description": "Awesome cookies",
    "promotion": true,
    "discount": 0,
    "image": "https://via.placeholder.com/80",
    "date_added": "2021-10-31T23:00:00.000Z",
    "category": [
      "cookies"
    ],
    "rating": {
      "votes": 2343,
      "rate": 3.5
    }
  }
]