{
  "tasks": [
    {
      "id": "123",
      "title": "Kup placki",
      "completed": true
    },
    {
      "id": "234",
      "title": "Kup Mleko",
      "completed": false
    },
    {
      "id": "345",
      "title": "Naucz się tego JSa!",
      "completed": false
    },
    {
      "id": "456",
      "title": "AngularJS mistrz",
      "completed": false
    }
  ]
}